20,25
G,1,G,1
G,1,G,2,G,2
G,2,G,2,G,2
G,2,G,3,G,2
G,3,B,2,G,4,G,5
G,3,B,2,G,4,G,3
G,3,R,3,B,2,R,6,G,6
G,1,R,2,B,2,R,4,G,6
R,2,R,2,R,2,G,6
R,2,R,2,O,2,R,2,O,1
R,2,R,2,O,2,R,2
R,10,O,1
O,9,O,1
O,1,O,2,O,2,O,2,O,1
O,1,O,2,O,2,O,3,O,1
O,9,O,3,B,2,O,5
O,9,O,2,B,1,O,1,O,1
B,2,B,5,B,4
O,5,R,2,B,1
O,1,O,1,R,1,B,3
R,2,B,1
G,1,R,3,O,5,B,1
G,1,G,3,R,2,R,1,O,1,O,2
G,6,R,2,R,1,O,1,O,2,B,1
G,1,G,2,R,2,R,1,O,5,B,1
G,1,R,1,R,1,O,5,B,1
R,1,R,1,O,1,O,2,B,1
B,4,R,1,O,1,O,2,B,1
B,4,R,1,O,5
R,1,R,2,O,5,B,1
R,1,R,2,B,1
G,1,G,1,R,1,R,2,B,1
G,1,G,3,R,3,B,1
G,6,R,2,O,2,O,3
G,1,G,2,R,2,O,2,O,4
G,1,R,2,O,3,B,1,O,1
R,2,B,1,O,2
G,1,R,2,O,4,B,1,O,1
G,1,G,3,R,1,O,2
G,1,G,6,O,1
G,9,O,1,O,1
G,1,G,5,O,2,R,1
G,1,G,3,O,1,R,1,B,1
G,1,G,1,O,2,R,1,B,1
O,1,B,2
